"Abbreviated Version","Manually Expanded Version"
"321 AMK St 64","321 Ang Mo Kio Street 64"
"202 Clementi Ave 6","202 Clementi Avenue 6"
"135 Bishan St 12","135 Bishan Street 12"
"1 Science Ctr Road","1 Science Center Road"
"123 Hougang Ctrl","123 Hougang Central"
"15 Orchard Blvd","15 Orchard Boulevard"
"Jln Eunos, Singapore","Jalan Eunos, Singapore"
"686 AMK Ave 5",""
"Science Ctr Way",""
"Jln Bahar",""
"Jl. Karu",""
"Sunset Way",""
"15 Commonwealth Ave.",""
